%YAML 1.1
%TAG !u! tag:unity3d.com,2011:
--- !u!114 &11400000
MonoBehaviour:
  m_ObjectHideFlags: 0
  m_CorrespondingSourceObject: {fileID: 0}
  m_PrefabInstance: {fileID: 0}
  m_PrefabAsset: {fileID: 0}
  m_GameObject: {fileID: 0}
  m_Enabled: 1
  m_EditorHideFlags: 0
  m_Script: {fileID: 11500000, guid: 8f712b56018ff3f419297694e4f9eb4e, type: 3}
  m_Name: SilverFish
  m_EditorClassIdentifier: 
  Tag: 1
  Chance: 50
  Income: 3
  Color: {r: 0.7294118, g: 0.7294118, b: 0.7294118, a: 1}
