%YAML 1.1
%TAG !u! tag:unity3d.com,2011:
--- !u!1001 &2586612518894055497
PrefabInstance:
  m_ObjectHideFlags: 0
  serializedVersion: 2
  m_Modification:
    m_TransformParent: {fileID: 0}
    m_Modifications:
    - target: {fileID: 586920064031633319, guid: a4e8ccc6ba5d2284191c15a1448e56d0, type: 3}
      propertyPath: ScriptableObject
      value: 
      objectReference: {fileID: 11400000, guid: e9da7a2832b9669428f5970c95716ab8, type: 2}
    - target: {fileID: 2016985024594970235, guid: a4e8ccc6ba5d2284191c15a1448e56d0, type: 3}
      propertyPath: m_Sprite
      value: 
      objectReference: {fileID: 21300000, guid: ac5ea3ae301adca4695fd3b8c24e1be2, type: 3}
    - target: {fileID: 2016985024594970235, guid: a4e8ccc6ba5d2284191c15a1448e56d0, type: 3}
      propertyPath: m_Color.b
      value: 1
      objectReference: {fileID: 0}
    - target: {fileID: 2016985024594970235, guid: a4e8ccc6ba5d2284191c15a1448e56d0, type: 3}
      propertyPath: m_Color.g
      value: 1
      objectReference: {fileID: 0}
    - target: {fileID: 2016985024594970235, guid: a4e8ccc6ba5d2284191c15a1448e56d0, type: 3}
      propertyPath: m_Color.r
      value: 1
      objectReference: {fileID: 0}
    - target: {fileID: 6327382367753893876, guid: a4e8ccc6ba5d2284191c15a1448e56d0, type: 3}
      propertyPath: m_RootOrder
      value: 0
      objectReference: {fileID: 0}
    - target: {fileID: 6327382367753893876, guid: a4e8ccc6ba5d2284191c15a1448e56d0, type: 3}
      propertyPath: m_LocalPosition.x
      value: 0
      objectReference: {fileID: 0}
    - target: {fileID: 6327382367753893876, guid: a4e8ccc6ba5d2284191c15a1448e56d0, type: 3}
      propertyPath: m_LocalPosition.y
      value: 0
      objectReference: {fileID: 0}
    - target: {fileID: 6327382367753893876, guid: a4e8ccc6ba5d2284191c15a1448e56d0, type: 3}
      propertyPath: m_LocalPosition.z
      value: 0
      objectReference: {fileID: 0}
    - target: {fileID: 6327382367753893876, guid: a4e8ccc6ba5d2284191c15a1448e56d0, type: 3}
      propertyPath: m_LocalRotation.w
      value: 1
      objectReference: {fileID: 0}
    - target: {fileID: 6327382367753893876, guid: a4e8ccc6ba5d2284191c15a1448e56d0, type: 3}
      propertyPath: m_LocalRotation.x
      value: 0
      objectReference: {fileID: 0}
    - target: {fileID: 6327382367753893876, guid: a4e8ccc6ba5d2284191c15a1448e56d0, type: 3}
      propertyPath: m_LocalRotation.y
      value: 0
      objectReference: {fileID: 0}
    - target: {fileID: 6327382367753893876, guid: a4e8ccc6ba5d2284191c15a1448e56d0, type: 3}
      propertyPath: m_LocalRotation.z
      value: 0
      objectReference: {fileID: 0}
    - target: {fileID: 6327382367753893876, guid: a4e8ccc6ba5d2284191c15a1448e56d0, type: 3}
      propertyPath: m_LocalEulerAnglesHint.x
      value: 0
      objectReference: {fileID: 0}
    - target: {fileID: 6327382367753893876, guid: a4e8ccc6ba5d2284191c15a1448e56d0, type: 3}
      propertyPath: m_LocalEulerAnglesHint.y
      value: 0
      objectReference: {fileID: 0}
    - target: {fileID: 6327382367753893876, guid: a4e8ccc6ba5d2284191c15a1448e56d0, type: 3}
      propertyPath: m_LocalEulerAnglesHint.z
      value: 0
      objectReference: {fileID: 0}
    - target: {fileID: 6935816880683837057, guid: a4e8ccc6ba5d2284191c15a1448e56d0, type: 3}
      propertyPath: m_Name
      value: GoldFish
      objectReference: {fileID: 0}
    m_RemovedComponents: []
  m_SourcePrefab: {fileID: 100100000, guid: a4e8ccc6ba5d2284191c15a1448e56d0, type: 3}
