%YAML 1.1
%TAG !u! tag:unity3d.com,2011:
--- !u!114 &11400000
MonoBehaviour:
  m_ObjectHideFlags: 0
  m_CorrespondingSourceObject: {fileID: 0}
  m_PrefabInstance: {fileID: 0}
  m_PrefabAsset: {fileID: 0}
  m_GameObject: {fileID: 0}
  m_Enabled: 1
  m_EditorHideFlags: 0
  m_Script: {fileID: 11500000, guid: efa7916a1e2493745b12a90009ac0148, type: 3}
  m_Name: Turret_1
  m_EditorClassIdentifier: 
  FireRate: 1
  Sprite: {fileID: 21300000, guid: e09d86e418577514f88146e608aefc85, type: 3}
